homework3/simulation/qsim/question57.msim.vcd
$comment
	File created using the following command:
		vcd file question57.msim.vcd -direction
$end
$date
	Thu Sep 26 19:49:36 2019
$end
$version
	ModelSim Version 10.1d
$end
$timescale
	1ps
$end
$scope module question57_vlg_vec_tst $end
$var reg 1 ! clock $end
$var wire 1 " out1 $end
$var wire 1 # out2 $end
$var wire 1 $ out3 $end
$var wire 1 % out4 $end
$var wire 1 & sampler $end
$scope module i1 $end
$var wire 1 ' gnd $end
$var wire 1 ( vcc $end
$var wire 1 ) unknown $end
$var wire 1 * clock~dataout $end
$var wire 1 + inst2~dataout $end
$var wire 1 , inst3~dataout $end
$var wire 1 - inst~dataout $end
$var wire 1 . inst1~dataout $end
$upscope $end
$upscope $end
$enddefinitions $end
#0
$dumpvars
0!
0"
0#
0$
0%
x&
0'
1(
x)
0*
0+
0,
0-
0.
$end
#25000
1!
1*
0&
1-
1"
#50000
0!
0*
1&
#75000
1!
1*
0&
1.
1#
#100000
0!
0*
1&
#125000
1!
1*
0&
1+
1$
#150000
0!
0*
1&
#175000
1!
1*
0&
1,
1%
#200000
0!
0*
1&
#225000
1!
1*
0&
0-
0"
#250000
0!
0*
1&
#275000
1!
1*
0&
0.
0#
#300000
0!
0*
1&
#325000
1!
1*
0&
0+
0$
#350000
0!
0*
1&
#375000
1!
1*
0&
0,
0%
#400000
0!
0*
1&
#425000
1!
1*
0&
1-
1"
#450000
0!
0*
1&
#475000
1!
1*
0&
1.
1#
#500000
0!
0*
1&
#525000
1!
1*
0&
1+
1$
#550000
0!
0*
1&
#575000
1!
1*
0&
1,
1%
#600000
0!
0*
1&
#625000
1!
1*
0&
0-
0"
#650000
0!
0*
1&
#675000
1!
1*
0&
0.
0#
#700000
0!
0*
1&
#725000
1!
1*
0&
0+
0$
#750000
0!
0*
1&
#775000
1!
1*
0&
0,
0%
#800000
0!
0*
1&
#825000
1!
1*
0&
1-
1"
#850000
0!
0*
1&
#875000
1!
1*
0&
1.
1#
#900000
0!
0*
1&
#925000
1!
1*
0&
1+
1$
#950000
0!
0*
1&
#975000
1!
1*
0&
1,
1%
